﻿## Interface: 30300
## Title: JuliaStatistics
## Title-ruRU: JuliaStatistics
## Notes: Аддон собирающий статистику выиграшей с монеток Джулии
## SavedVariables: JSBase, JSOptions, JSUsers, JSLastWin
## LoadOnDemand: 0
## DefaultState: enabled
## Author: Ritual
localization.ru.lua
sha2.lua
JuliaStatistics.lua
